<?xml version="1.0" encoding="UTF-8"?>
<svg width="71px" height="80px" viewBox="0 0 71 80" version="1.1" xmlns="http://www.w3.org/2000/svg" xmlns:xlink="http://www.w3.org/1999/xlink">
    <!-- Generator: sketchtool 48.1 (47250) - http://www.bohemiancoding.com/sketch -->
    <title>91358E7B-D0C1-48A4-AAB0-DAE2B1006818</title>
    <desc>Created with sketchtool.</desc>
    <defs></defs>
    <g id="1024" stroke="none" stroke-width="1" fill="none" fill-rule="evenodd" transform="translate(-732.000000, -2248.000000)">
        <polygon id="Page-1" fill="#008ECF" points="765.507292 2248 765.507292 2261.352 758.040864 2253.858 755.226012 2256.686 765.507292 2267.008 765.507292 2284.536 750.389169 2275.772 746.626073 2261.67 742.779308 2262.706 745.508499 2272.944 733.99211 2266.266 732 2269.732 743.518381 2276.41 733.320769 2279.15 734.352682 2283.014 748.397058 2279.238 763.515182 2287.998 748.397058 2296.762 734.352682 2292.984 733.320769 2296.846 743.518381 2299.59 732 2306.266 733.99211 2309.732 745.508499 2303.054 742.779308 2313.292 746.626073 2314.326 750.389169 2300.228 765.507292 2291.462 765.507292 2308.99 755.226012 2319.31 758.040864 2322.138 765.507292 2314.646 765.507292 2328 769.491512 2328 769.491512 2314.646 776.955949 2322.138 779.772793 2319.31 769.491512 2308.99 769.491512 2291.462 784.609636 2300.228 788.374724 2314.326 792.221489 2313.292 789.488314 2303.054 801.008687 2309.732 803.000797 2306.266 791.480424 2299.59 801.680028 2296.846 800.648115 2292.984 786.601746 2296.762 771.485615 2287.998 786.601746 2279.238 800.648115 2283.014 801.680028 2279.15 791.480424 2276.41 803.000797 2269.732 801.008687 2266.266 789.488314 2272.944 792.221489 2262.706 788.374724 2261.67 784.609636 2275.772 769.491512 2284.536 769.491512 2267.008 779.772793 2256.686 776.955949 2253.858 769.491512 2261.352 769.491512 2248"></polygon>
    </g>
</svg>