<?xml version="1.0" encoding="UTF-8"?>
<svg width="80px" height="80px" viewBox="0 0 80 80" version="1.1" xmlns="http://www.w3.org/2000/svg" xmlns:xlink="http://www.w3.org/1999/xlink">
    <!-- Generator: sketchtool 48.1 (47250) - http://www.bohemiancoding.com/sketch -->
    <title>B880A4AA-1C2C-469F-9192-833B9BBE20D6</title>
    <desc>Created with sketchtool.</desc>
    <defs>
        <polygon id="path-1" points="1.77630263e-15 16.2348 1.77630263e-15 0.5048 79.9992 0.5048 79.9992 16.2348"></polygon>
        <polygon id="path-3" points="1.77630263e-15 16.0726 1.77630263e-15 0.3426 79.9992 0.3426 79.9992 16.0726"></polygon>
        <polygon id="path-5" points="0 0.2704 0 16 79.9992 16 79.9992 0.2704 5.42101086e-20 0.2704"></polygon>
    </defs>
    <g id="1024" stroke="none" stroke-width="1" fill="none" fill-rule="evenodd" transform="translate(-216.000000, -2248.000000)">
        <g id="Page-1" transform="translate(216.000000, 2248.000000)">
            <path d="M57.267,0.0008 L57.267,16.0008 L22.733,16.0008 L22.733,0.0008 L18.733,0.0008 L18.733,48.9348 L22.733,48.9348 L22.733,34.6248 L57.267,34.6248 L57.267,48.9348 L61.267,48.9348 L61.267,0.0008 L57.267,0.0008 Z M22.733,30.6268 L57.267,30.6268 L57.267,20.0008 L22.733,20.0008 L22.733,30.6268 Z" id="Fill-1" fill="#008ECF"></path>
            <g id="Group-11" transform="translate(0.000000, 39.000000)">
                <g id="Group-4">
                    <mask id="mask-2" fill="white">
                        <use xlink:href="#path-1"></use>
                    </mask>
                    <g id="Clip-3"></g>
                    <path d="M68.4972,7.0888 C66.1572,9.8508 64.1352,12.2348 60.1152,12.2348 C56.0952,12.2348 54.1712,9.9628 51.7352,7.0888 C49.1192,4.0028 46.1532,0.5048 40.2292,0.5048 C34.3092,0.5048 31.3472,4.0028 28.7312,7.0908 C26.2972,9.9628 24.3732,12.2348 20.3592,12.2348 C16.3412,12.2348 14.4172,9.9628 11.9832,7.0888 C9.3672,4.0028 6.4032,0.5048 0.4812,0.5048 C0.3112,0.5048 0.1652,0.5348 -0.0008,0.5408 L-0.0008,4.5408 C0.1632,4.5308 0.3112,4.5048 0.4812,4.5048 C4.4972,4.5048 6.4212,6.7768 8.8592,9.6508 C11.4732,12.7368 14.4372,16.2348 20.3592,16.2348 C26.2792,16.2348 29.2412,12.7368 31.8552,9.6508 C34.2912,6.7768 36.2132,4.5048 40.2292,4.5048 C44.2492,4.5048 46.2712,6.8888 48.6132,9.6508 C51.2272,12.7368 54.1912,16.2348 60.1152,16.2348 C66.0392,16.2348 69.0032,12.7368 71.6212,9.6508 C74.0572,6.7768 75.9812,4.5048 79.9992,4.5048 L79.9992,0.5048 C74.0772,0.5048 71.1132,4.0028 68.4972,7.0888" id="Fill-2" fill="#008ECF" mask="url(#mask-2)"></path>
                </g>
                <g id="Group-7" transform="translate(0.000000, 13.000000)">
                    <mask id="mask-4" fill="white">
                        <use xlink:href="#path-3"></use>
                    </mask>
                    <g id="Clip-6"></g>
                    <path d="M68.4972,6.9266 C66.1572,9.6886 64.1352,12.0726 60.1152,12.0726 C56.0952,12.0726 54.1712,9.8006 51.7352,6.9266 C49.1192,3.8406 46.1532,0.3426 40.2292,0.3426 C34.3092,0.3426 31.3472,3.8406 28.7312,6.9286 C26.2972,9.8006 24.3732,12.0726 20.3592,12.0726 C16.3412,12.0726 14.4172,9.8006 11.9832,6.9266 C9.3672,3.8406 6.4032,0.3426 0.4812,0.3426 C0.3112,0.3426 0.1652,0.3726 -0.0008,0.3786 L-0.0008,4.3786 C0.1632,4.3686 0.3112,4.3426 0.4812,4.3426 C4.4972,4.3426 6.4212,6.6146 8.8592,9.4886 C11.4732,12.5746 14.4372,16.0726 20.3592,16.0726 C26.2792,16.0726 29.2412,12.5746 31.8552,9.4886 C34.2912,6.6146 36.2132,4.3426 40.2292,4.3426 C44.2492,4.3426 46.2712,6.7266 48.6132,9.4886 C51.2272,12.5746 54.1912,16.0726 60.1152,16.0726 C66.0392,16.0726 69.0032,12.5746 71.6212,9.4886 C74.0572,6.6146 75.9812,4.3426 79.9992,4.3426 L79.9992,0.3426 C74.0772,0.3426 71.1132,3.8406 68.4972,6.9266" id="Fill-5" fill="#008ECF" mask="url(#mask-4)"></path>
                </g>
                <g id="Group-10" transform="translate(0.000000, 25.000000)">
                    <mask id="mask-6" fill="white">
                        <use xlink:href="#path-5"></use>
                    </mask>
                    <g id="Clip-9"></g>
                    <path d="M68.4972,6.8544 C66.1572,9.6164 64.1352,12.0004 60.1152,12.0004 C56.0952,12.0004 54.1712,9.7284 51.7352,6.8544 C49.1192,3.7684 46.1532,0.2704 40.2292,0.2704 C34.3092,0.2704 31.3472,3.7684 28.7312,6.8564 C26.2972,9.7284 24.3732,12.0004 20.3592,12.0004 C16.3412,12.0004 14.4172,9.7284 11.9832,6.8544 C9.3672,3.7684 6.4032,0.2704 0.4812,0.2704 C0.3112,0.2704 0.1652,0.3004 -0.0008,0.3064 L-0.0008,4.3064 C0.1632,4.2964 0.3112,4.2704 0.4812,4.2704 C4.4972,4.2704 6.4212,6.5424 8.8592,9.4164 C11.4732,12.5024 14.4372,16.0004 20.3592,16.0004 C26.2792,16.0004 29.2412,12.5024 31.8552,9.4164 C34.2912,6.5424 36.2132,4.2704 40.2292,4.2704 C44.2492,4.2704 46.2712,6.6544 48.6132,9.4164 C51.2272,12.5024 54.1912,16.0004 60.1152,16.0004 C66.0392,16.0004 69.0032,12.5024 71.6212,9.4164 C74.0572,6.5424 75.9812,4.2704 79.9992,4.2704 L79.9992,0.2704 C74.0772,0.2704 71.1132,3.7684 68.4972,6.8544" id="Fill-8" fill="#008ECF" mask="url(#mask-6)"></path>
                </g>
            </g>
        </g>
    </g>
</svg>